{
    "swagger": "2.0",
    "info": {
        "description": "This is a local Backend API for Books store Product",
        "version": "1.0.0",
        "title": "book store Swagger API Library",
        "termsOfService": "http://swagger.io/terms/",
        "contact": {
            "email": "sapna.patil@bridgelabz.com"
        },
        "license": {
            "name": "Apache 2.0",
            "url": "http://www.apache.org/licenses/LICENSE-2.0.html"
        }
    },
    "host": "localhost:3000",
    "basePath": "",
    "tags": [
        {
            "name": "books",
            "description": "Operation on books"
        }
    ],
    "schemes": [
        "http",
        "https"
    ],
    "paths": {
        "/getBookDetails": {
            "get": {
                "summary": "Get all books from Database",
                "description": "get all books.",
                "produces": [
                    "application/json",
                    "application/xml"
                ],
                "responses": {
                    "200": {
                        "description": "Successfull operation"
                    }
                }
            }
        },
        "/searchByTitle": {
            "get": {
                "summary": "Search books by title",
                "description": "search Book",
                "produces": [
                    "application/json",
                    "application/xml"
                ],
                "parameters": [
                    {
                        "in": "query",
                        "name": "title",
                        "description": "Title is required",
                        "required": true
                    }
                ],
                "responses": {
                    "200": {
                        "description": "Successfull operation"
                    }
                }
            }
        },
        "/getPaginatedBooks": {
            "get": {
                "summary": "Get Books on basis of paginator",
                "description": "Get paginated books",
                "produces": [
                    "application/json",
                    "application/xml"
                ],
                "parameters": [
                   {
                    "name":"PageNo",
                    "in":"query",
                    "description":"The PageNo that needs to be fetched",
                    "required":true,
                    "type":"integer"
                   },
                   {
                    "name":"size",
                    "in":"query",
                    "description":" Enter size per page",
                    "required":true,
                    "type":"integer"
                   }
                ],
                "responses": {
                    "200": {
                        "description": "Successfull operation"
                    }
                }
            }
        },
        "/getSortedBooks": {
            "get": {
                "summary": "Sort books by price",
                "description": "sort Book",
                "produces": [
                    "application/json",
                    "application/xml"
                ],
                "parameters": [
                    {
                        "in": "query",
                        "name": "price",
                        "description": "Enter price 1 or -1",
                        "required": true
                    }
                ],
                "responses": {
                    "200": {
                        "description": "Successfull operation"
                    }
                }
            }
        },
        "/CustomerDetails": {
            "post": {
                "summary": " Add customer details to Database",
                "description": "save customer details",
                "produces": [
                    "application/json",
                    "application/xml"
                ],
                "parameters": [
                    {
                        "in": "body",
                        "name": "body",
                        "description": "Add customer Details to DB",
                        "required": true,
                        "schema": {
                            "$ref": "#/definitions/customerDetails"
                        }
                    }
                ],
                "responses": {
                    "200": {
                        "description": "successfully saved details to DB"
                    },
                    "400": {
                        "description": "unable to save customer Details"
                    }
                }
            }
        }
    },
    "definitions": {
        "customerDetails": {
            "type": "object",
            "properties": {
                "name": {
                    "type": "String"
                },
                "phone_Number": {
                    "type": "String"
                },
                "pinCode": {
                    "type": "String"
                },
                "address": {
                    "type": "String"
                },
                "city": {
                    "type": "String"
                },
                "landMark": {
                    "type": "String"
                },
                "email": {
                    "type": "String"
                },
                "type": {
                    "type": "String"
                }
            },
            "example": {
                "name": "sapna",
                "phone_Number": "8989817590",
                "pinCode": "450331",
                "address": "New indira colony",
                "city": "Burhanpur",
                "landMark": "Borle Hospital",
                "email": "sapna.patil@bridgelabz.com",
                "type": "home"
            }
        }
    }
}